{
    "data": [
        {
            "id": "jxzv9w",
            "url": "https://wallhaven.cc/w/jxzv9w",
            "short_url": "https://whvn.cc/jxzv9w",
            "views": 114,
            "favorites": 5,
            "source": "https://www.callumsnapephoto.com/",
            "purity": "sfw",
            "category": "general",
            "dimension_x": 1600,
            "dimension_y": 1067,
            "resolution": "1600x1067",
            "ratio": "1.5",
            "file_size": 1147260,
            "file_type": "image/jpeg",
            "created_at": "2024-09-03 14:32:19",
            "colors": ["#999999", "#424153", "#66cccc", "#abbcda", "#000000"],
            "path": "https://w.wallhaven.cc/full/jx/wallhaven-jxzv9w.jpg",
            "thumbs": {
                "large": "https://th.wallhaven.cc/lg/jx/jxzv9w.jpg",
                "original": "https://th.wallhaven.cc/orig/jx/jxzv9w.jpg",
                "small": "https://th.wallhaven.cc/small/jx/jxzv9w.jpg"
            }
        },
        {
            "id": "7p5w59",
            "url": "https://wallhaven.cc/w/7p5w59",
            "short_url": "https://whvn.cc/7p5w59",
            "views": 355,
            "favorites": 5,
            "source": "",
            "purity": "sfw",
            "category": "general",
            "dimension_x": 2070,
            "dimension_y": 1440,
            "resolution": "2070x1440",
            "ratio": "1.44",
            "file_size": 1930920,
            "file_type": "image/jpeg",
            "created_at": "2024-09-03 04:42:54",
            "colors": ["#000000", "#424153", "#663399", "#999999", "#333399"],
            "path": "https://w.wallhaven.cc/full/7p/wallhaven-7p5w59.jpg",
            "thumbs": {
                "large": "https://th.wallhaven.cc/lg/7p/7p5w59.jpg",
                "original": "https://th.wallhaven.cc/orig/7p/7p5w59.jpg",
                "small": "https://th.wallhaven.cc/small/7p/7p5w59.jpg"
            }
        },
        {
            "id": "85yd8o",
            "url": "https://wallhaven.cc/w/85yd8o",
            "short_url": "https://whvn.cc/85yd8o",
            "views": 404,
            "favorites": 20,
            "source": "https://www.pixiv.net/artworks/117027623",
            "purity": "sfw",
            "category": "anime",
            "dimension_x": 4096,
            "dimension_y": 2048,
            "resolution": "4096x2048",
            "ratio": "2",
            "file_size": 1587215,
            "file_type": "image/jpeg",
            "created_at": "2024-09-02 15:17:15",
            "colors": ["#ffffff", "#abbcda", "#cccccc", "#66cccc", "#999999"],
            "path": "https://w.wallhaven.cc/full/85/wallhaven-85yd8o.jpg",
            "thumbs": {
                "large": "https://th.wallhaven.cc/lg/85/85yd8o.jpg",
                "original": "https://th.wallhaven.cc/orig/85/85yd8o.jpg",
                "small": "https://th.wallhaven.cc/small/85/85yd8o.jpg"
            }
        },
        {
            "id": "p9djm3",
            "url": "https://wallhaven.cc/w/p9djm3",
            "short_url": "https://whvn.cc/p9djm3",
            "views": 315,
            "favorites": 10,
            "source": "https://www.pixiv.net/artworks/108946376",
            "purity": "sfw",
            "category": "anime",
            "dimension_x": 3298,
            "dimension_y": 4400,
            "resolution": "3298x4400",
            "ratio": "0.75",
            "file_size": 2661833,
            "file_type": "image/jpeg",
            "created_at": "2024-09-02 15:14:47",
            "colors": ["#424153", "#999999", "#000000", "#ffffff", "#cccccc"],
            "path": "https://w.wallhaven.cc/full/p9/wallhaven-p9djm3.jpg",
            "thumbs": {
                "large": "https://th.wallhaven.cc/lg/p9/p9djm3.jpg",
                "original": "https://th.wallhaven.cc/orig/p9/p9djm3.jpg",
                "small": "https://th.wallhaven.cc/small/p9/p9djm3.jpg"
            }
        },
        {
            "id": "we7lxx",
            "url": "https://wallhaven.cc/w/we7lxx",
            "short_url": "https://whvn.cc/we7lxx",
            "views": 394,
            "favorites": 19,
            "source": "https://www.miyoushe.com/sr/article/50370194",
            "purity": "sfw",
            "category": "anime",
            "dimension_x": 2628,
            "dimension_y": 5996,
            "resolution": "2628x5996",
            "ratio": "0.44",
            "file_size": 13193331,
            "file_type": "image/jpeg",
            "created_at": "2024-09-02 15:14:47",
            "colors": ["#424153", "#999999", "#000000", "#cccccc", "#e7d8b1"],
            "path": "https://w.wallhaven.cc/full/we/wallhaven-we7lxx.jpg",
            "thumbs": {
                "large": "https://th.wallhaven.cc/lg/we/we7lxx.jpg",
                "original": "https://th.wallhaven.cc/orig/we/we7lxx.jpg",
                "small": "https://th.wallhaven.cc/small/we/we7lxx.jpg"
            }
        },
        {
            "id": "zyeoog",
            "url": "https://wallhaven.cc/w/zyeoog",
            "short_url": "https://whvn.cc/zyeoog",
            "views": 323,
            "favorites": 13,
            "source": "https://www.pixiv.net/en/artworks/121769856",
            "purity": "sfw",
            "category": "anime",
            "dimension_x": 4327,
            "dimension_y": 2607,
            "resolution": "4327x2607",
            "ratio": "1.66",
            "file_size": 3167711,
            "file_type": "image/jpeg",
            "created_at": "2024-09-02 07:25:45",
            "colors": ["#cccccc", "#999999", "#000000", "#abbcda", "#66cccc"],
            "path": "https://w.wallhaven.cc/full/zy/wallhaven-zyeoog.jpg",
            "thumbs": {
                "large": "https://th.wallhaven.cc/lg/zy/zyeoog.jpg",
                "original": "https://th.wallhaven.cc/orig/zy/zyeoog.jpg",
                "small": "https://th.wallhaven.cc/small/zy/zyeoog.jpg"
            }
        },
        {
            "id": "85yd5y",
            "url": "https://wallhaven.cc/w/85yd5y",
            "short_url": "https://whvn.cc/85yd5y",
            "views": 436,
            "favorites": 7,
            "source": "https://www.bennettfilm.com/",
            "purity": "sfw",
            "category": "general",
            "dimension_x": 1600,
            "dimension_y": 1067,
            "resolution": "1600x1067",
            "ratio": "1.5",
            "file_size": 231514,
            "file_type": "image/jpeg",
            "created_at": "2024-09-01 19:24:23",
            "colors": ["#66cccc", "#999999", "#424153", "#333399", "#abbcda"],
            "path": "https://w.wallhaven.cc/full/85/wallhaven-85yd5y.jpg",
            "thumbs": {
                "large": "https://th.wallhaven.cc/lg/85/85yd5y.jpg",
                "original": "https://th.wallhaven.cc/orig/85/85yd5y.jpg",
                "small": "https://th.wallhaven.cc/small/85/85yd5y.jpg"
            }
        },
        {
            "id": "we7l5q",
            "url": "https://wallhaven.cc/w/we7l5q",
            "short_url": "https://whvn.cc/we7l5q",
            "views": 607,
            "favorites": 24,
            "source": "https://www.bennettfilm.com/",
            "purity": "sfw",
            "category": "general",
            "dimension_x": 1679,
            "dimension_y": 1200,
            "resolution": "1679x1200",
            "ratio": "1.4",
            "file_size": 1078267,
            "file_type": "image/jpeg",
            "created_at": "2024-09-01 19:24:23",
            "colors": ["#424153", "#000000", "#999999", "#663300", "#cccccc"],
            "path": "https://w.wallhaven.cc/full/we/wallhaven-we7l5q.jpg",
            "thumbs": {
                "large": "https://th.wallhaven.cc/lg/we/we7l5q.jpg",
                "original": "https://th.wallhaven.cc/orig/we/we7l5q.jpg",
                "small": "https://th.wallhaven.cc/small/we/we7l5q.jpg"
            }
        },
        {
            "id": "9dl8ox",
            "url": "https://wallhaven.cc/w/9dl8ox",
            "short_url": "https://whvn.cc/9dl8ox",
            "views": 527,
            "favorites": 19,
            "source": "https://www.bennettfilm.com/",
            "purity": "sfw",
            "category": "general",
            "dimension_x": 1766,
            "dimension_y": 1200,
            "resolution": "1766x1200",
            "ratio": "1.47",
            "file_size": 660926,
            "file_type": "image/jpeg",
            "created_at": "2024-09-01 19:24:23",
            "colors": ["#999999", "#424153", "#996633", "#e7d8b1", "#cc6633"],
            "path": "https://w.wallhaven.cc/full/9d/wallhaven-9dl8ox.jpg",
            "thumbs": {
                "large": "https://th.wallhaven.cc/lg/9d/9dl8ox.jpg",
                "original": "https://th.wallhaven.cc/orig/9d/9dl8ox.jpg",
                "small": "https://th.wallhaven.cc/small/9d/9dl8ox.jpg"
            }
        },
        {
            "id": "kxqkxm",
            "url": "https://wallhaven.cc/w/kxqkxm",
            "short_url": "https://whvn.cc/kxqkxm",
            "views": 501,
            "favorites": 15,
            "source": "https://www.bennettfilm.com/",
            "purity": "sfw",
            "category": "general",
            "dimension_x": 1600,
            "dimension_y": 1067,
            "resolution": "1600x1067",
            "ratio": "1.5",
            "file_size": 568358,
            "file_type": "image/jpeg",
            "created_at": "2024-09-01 19:24:23",
            "colors": ["#424153", "#999999", "#abbcda", "#000000", "#cccccc"],
            "path": "https://w.wallhaven.cc/full/kx/wallhaven-kxqkxm.jpg",
            "thumbs": {
                "large": "https://th.wallhaven.cc/lg/kx/kxqkxm.jpg",
                "original": "https://th.wallhaven.cc/orig/kx/kxqkxm.jpg",
                "small": "https://th.wallhaven.cc/small/kx/kxqkxm.jpg"
            }
        },
        {
            "id": "3l15q3",
            "url": "https://wallhaven.cc/w/3l15q3",
            "short_url": "https://whvn.cc/3l15q3",
            "views": 585,
            "favorites": 24,
            "source": "https://www.bennettfilm.com/",
            "purity": "sfw",
            "category": "general",
            "dimension_x": 1799,
            "dimension_y": 1200,
            "resolution": "1799x1200",
            "ratio": "1.5",
            "file_size": 1308118,
            "file_type": "image/jpeg",
            "created_at": "2024-09-01 19:24:23",
            "colors": ["#424153", "#000000", "#abbcda", "#663300", "#999999"],
            "path": "https://w.wallhaven.cc/full/3l/wallhaven-3l15q3.jpg",
            "thumbs": {
                "large": "https://th.wallhaven.cc/lg/3l/3l15q3.jpg",
                "original": "https://th.wallhaven.cc/orig/3l/3l15q3.jpg",
                "small": "https://th.wallhaven.cc/small/3l/3l15q3.jpg"
            }
        },
        {
            "id": "x6mjlo",
            "url": "https://wallhaven.cc/w/x6mjlo",
            "short_url": "https://whvn.cc/x6mjlo",
            "views": 1114,
            "favorites": 29,
            "source": "",
            "purity": "sfw",
            "category": "general",
            "dimension_x": 3840,
            "dimension_y": 2160,
            "resolution": "3840x2160",
            "ratio": "1.78",
            "file_size": 9563368,
            "file_type": "image/png",
            "created_at": "2024-09-01 14:11:58",
            "colors": ["#424153", "#0066cc", "#333399", "#66cccc", "#0099cc"],
            "path": "https://w.wallhaven.cc/full/x6/wallhaven-x6mjlo.png",
            "thumbs": {
                "large": "https://th.wallhaven.cc/lg/x6/x6mjlo.jpg",
                "original": "https://th.wallhaven.cc/orig/x6/x6mjlo.jpg",
                "small": "https://th.wallhaven.cc/small/x6/x6mjlo.jpg"
            }
        },
        {
            "id": "qzy3or",
            "url": "https://wallhaven.cc/w/qzy3or",
            "short_url": "https://whvn.cc/qzy3or",
            "views": 705,
            "favorites": 11,
            "source": "",
            "purity": "sfw",
            "category": "general",
            "dimension_x": 7087,
            "dimension_y": 4724,
            "resolution": "7087x4724",
            "ratio": "1.5",
            "file_size": 9805604,
            "file_type": "image/jpeg",
            "created_at": "2024-08-31 21:46:39",
            "colors": ["#000000", "#424153", "#999999", "#333399", "#663300"],
            "path": "https://w.wallhaven.cc/full/qz/wallhaven-qzy3or.jpg",
            "thumbs": {
                "large": "https://th.wallhaven.cc/lg/qz/qzy3or.jpg",
                "original": "https://th.wallhaven.cc/orig/qz/qzy3or.jpg",
                "small": "https://th.wallhaven.cc/small/qz/qzy3or.jpg"
            }
        },
        {
            "id": "qzy3mr",
            "url": "https://wallhaven.cc/w/qzy3mr",
            "short_url": "https://whvn.cc/qzy3mr",
            "views": 879,
            "favorites": 27,
            "source": "https://www.pixiv.net/en/users/3434849",
            "purity": "sfw",
            "category": "general",
            "dimension_x": 5640,
            "dimension_y": 2400,
            "resolution": "5640x2400",
            "ratio": "2.35",
            "file_size": 2017860,
            "file_type": "image/jpeg",
            "created_at": "2024-08-31 19:13:28",
            "colors": ["#424153", "#000000", "#333399", "#66cccc", "#0099cc"],
            "path": "https://w.wallhaven.cc/full/qz/wallhaven-qzy3mr.jpg",
            "thumbs": {
                "large": "https://th.wallhaven.cc/lg/qz/qzy3mr.jpg",
                "original": "https://th.wallhaven.cc/orig/qz/qzy3mr.jpg",
                "small": "https://th.wallhaven.cc/small/qz/qzy3mr.jpg"
            }
        },
        {
            "id": "3l1w93",
            "url": "https://wallhaven.cc/w/3l1w93",
            "short_url": "https://whvn.cc/3l1w93",
            "views": 1010,
            "favorites": 31,
            "source": "",
            "purity": "sfw",
            "category": "general",
            "dimension_x": 3840,
            "dimension_y": 2160,
            "resolution": "3840x2160",
            "ratio": "1.78",
            "file_size": 13427875,
            "file_type": "image/png",
            "created_at": "2024-08-31 06:52:22",
            "colors": [],
            "path": "https://w.wallhaven.cc/full/3l/wallhaven-3l1w93.png",
            "thumbs": {
                "large": "https://th.wallhaven.cc/lg/3l/3l1w93.jpg",
                "original": "https://th.wallhaven.cc/orig/3l/3l1w93.jpg",
                "small": "https://th.wallhaven.cc/small/3l/3l1w93.jpg"
            }
        },
        {
            "id": "vq6ogp",
            "url": "https://wallhaven.cc/w/vq6ogp",
            "short_url": "https://whvn.cc/vq6ogp",
            "views": 1026,
            "favorites": 31,
            "source": "",
            "purity": "sfw",
            "category": "general",
            "dimension_x": 6143,
            "dimension_y": 3456,
            "resolution": "6143x3456",
            "ratio": "1.78",
            "file_size": 19935786,
            "file_type": "image/jpeg",
            "created_at": "2024-08-31 06:52:22",
            "colors": [],
            "path": "https://w.wallhaven.cc/full/vq/wallhaven-vq6ogp.jpg",
            "thumbs": {
                "large": "https://th.wallhaven.cc/lg/vq/vq6ogp.jpg",
                "original": "https://th.wallhaven.cc/orig/vq/vq6ogp.jpg",
                "small": "https://th.wallhaven.cc/small/vq/vq6ogp.jpg"
            }
        },
        {
            "id": "d67kgg",
            "url": "https://wallhaven.cc/w/d67kgg",
            "short_url": "https://whvn.cc/d67kgg",
            "views": 1167,
            "favorites": 40,
            "source": "",
            "purity": "sfw",
            "category": "general",
            "dimension_x": 3840,
            "dimension_y": 2160,
            "resolution": "3840x2160",
            "ratio": "1.78",
            "file_size": 11882318,
            "file_type": "image/png",
            "created_at": "2024-08-31 06:52:22",
            "colors": ["#999999", "#424153", "#000000", "#cccccc", "#abbcda"],
            "path": "https://w.wallhaven.cc/full/d6/wallhaven-d67kgg.png",
            "thumbs": {
                "large": "https://th.wallhaven.cc/lg/d6/d67kgg.jpg",
                "original": "https://th.wallhaven.cc/orig/d6/d67kgg.jpg",
                "small": "https://th.wallhaven.cc/small/d6/d67kgg.jpg"
            }
        },
        {
            "id": "m3kzg8",
            "url": "https://wallhaven.cc/w/m3kzg8",
            "short_url": "https://whvn.cc/m3kzg8",
            "views": 271,
            "favorites": 1,
            "source": "",
            "purity": "sfw",
            "category": "anime",
            "dimension_x": 2560,
            "dimension_y": 1440,
            "resolution": "2560x1440",
            "ratio": "1.78",
            "file_size": 2650584,
            "file_type": "image/png",
            "created_at": "2024-08-30 12:42:39",
            "colors": ["#424153", "#000000", "#999999", "#cccccc", "#abbcda"],
            "path": "https://w.wallhaven.cc/full/m3/wallhaven-m3kzg8.png",
            "thumbs": {
                "large": "https://th.wallhaven.cc/lg/m3/m3kzg8.jpg",
                "original": "https://th.wallhaven.cc/orig/m3/m3kzg8.jpg",
                "small": "https://th.wallhaven.cc/small/m3/m3kzg8.jpg"
            }
        },
        {
            "id": "exm32o",
            "url": "https://wallhaven.cc/w/exm32o",
            "short_url": "https://whvn.cc/exm32o",
            "views": 225,
            "favorites": 1,
            "source": "",
            "purity": "sfw",
            "category": "anime",
            "dimension_x": 2560,
            "dimension_y": 1440,
            "resolution": "2560x1440",
            "ratio": "1.78",
            "file_size": 3922632,
            "file_type": "image/png",
            "created_at": "2024-08-30 12:42:39",
            "colors": ["#424153", "#000000", "#996633", "#e7d8b1", "#999999"],
            "path": "https://w.wallhaven.cc/full/ex/wallhaven-exm32o.png",
            "thumbs": {
                "large": "https://th.wallhaven.cc/lg/ex/exm32o.jpg",
                "original": "https://th.wallhaven.cc/orig/ex/exm32o.jpg",
                "small": "https://th.wallhaven.cc/small/ex/exm32o.jpg"
            }
        },
        {
            "id": "zyezoy",
            "url": "https://wallhaven.cc/w/zyezoy",
            "short_url": "https://whvn.cc/zyezoy",
            "views": 443,
            "favorites": 11,
            "source": "https://www.hougaardmalan.com/",
            "purity": "sfw",
            "category": "general",
            "dimension_x": 1500,
            "dimension_y": 1000,
            "resolution": "1500x1000",
            "ratio": "1.5",
            "file_size": 256281,
            "file_type": "image/jpeg",
            "created_at": "2024-08-30 09:17:01",
            "colors": ["#424153", "#999999", "#000000", "#fdadc7", "#e7d8b1"],
            "path": "https://w.wallhaven.cc/full/zy/wallhaven-zyezoy.jpg",
            "thumbs": {
                "large": "https://th.wallhaven.cc/lg/zy/zyezoy.jpg",
                "original": "https://th.wallhaven.cc/orig/zy/zyezoy.jpg",
                "small": "https://th.wallhaven.cc/small/zy/zyezoy.jpg"
            }
        },
        {
            "id": "7p591y",
            "url": "https://wallhaven.cc/w/7p591y",
            "short_url": "https://whvn.cc/7p591y",
            "views": 579,
            "favorites": 13,
            "source": "https://www.hougaardmalan.com/",
            "purity": "sfw",
            "category": "general",
            "dimension_x": 1500,
            "dimension_y": 1002,
            "resolution": "1500x1002",
            "ratio": "1.5",
            "file_size": 198802,
            "file_type": "image/jpeg",
            "created_at": "2024-08-30 09:17:01",
            "colors": ["#000000", "#663300", "#424153", "#996633", "#660000"],
            "path": "https://w.wallhaven.cc/full/7p/wallhaven-7p591y.jpg",
            "thumbs": {
                "large": "https://th.wallhaven.cc/lg/7p/7p591y.jpg",
                "original": "https://th.wallhaven.cc/orig/7p/7p591y.jpg",
                "small": "https://th.wallhaven.cc/small/7p/7p591y.jpg"
            }
        },
        {
            "id": "o5ry1p",
            "url": "https://wallhaven.cc/w/o5ry1p",
            "short_url": "https://whvn.cc/o5ry1p",
            "views": 529,
            "favorites": 19,
            "source": "https://www.hougaardmalan.com/",
            "purity": "sfw",
            "category": "general",
            "dimension_x": 1920,
            "dimension_y": 960,
            "resolution": "1920x960",
            "ratio": "2",
            "file_size": 565426,
            "file_type": "image/jpeg",
            "created_at": "2024-08-30 08:41:56",
            "colors": ["#424153", "#000000", "#663300", "#999999", "#996633"],
            "path": "https://w.wallhaven.cc/full/o5/wallhaven-o5ry1p.jpg",
            "thumbs": {
                "large": "https://th.wallhaven.cc/lg/o5/o5ry1p.jpg",
                "original": "https://th.wallhaven.cc/orig/o5/o5ry1p.jpg",
                "small": "https://th.wallhaven.cc/small/o5/o5ry1p.jpg"
            }
        },
        {
            "id": "vq6zz5",
            "url": "https://wallhaven.cc/w/vq6zz5",
            "short_url": "https://whvn.cc/vq6zz5",
            "views": 1068,
            "favorites": 29,
            "source": "",
            "purity": "sfw",
            "category": "general",
            "dimension_x": 3840,
            "dimension_y": 2160,
            "resolution": "3840x2160",
            "ratio": "1.78",
            "file_size": 7374225,
            "file_type": "image/png",
            "created_at": "2024-08-30 05:46:26",
            "colors": ["#424153", "#999999", "#663399", "#ea4c88", "#fdadc7"],
            "path": "https://w.wallhaven.cc/full/vq/wallhaven-vq6zz5.png",
            "thumbs": {
                "large": "https://th.wallhaven.cc/lg/vq/vq6zz5.jpg",
                "original": "https://th.wallhaven.cc/orig/vq/vq6zz5.jpg",
                "small": "https://th.wallhaven.cc/small/vq/vq6zz5.jpg"
            }
        },
        {
            "id": "x6mz1o",
            "url": "https://wallhaven.cc/w/x6mz1o",
            "short_url": "https://whvn.cc/x6mz1o",
            "views": 696,
            "favorites": 19,
            "source": "",
            "purity": "sfw",
            "category": "anime",
            "dimension_x": 2560,
            "dimension_y": 1440,
            "resolution": "2560x1440",
            "ratio": "1.78",
            "file_size": 152816,
            "file_type": "image/png",
            "created_at": "2024-08-30 00:34:21",
            "colors": ["#abbcda", "#424153", "#000000", "#cc6633", "#0099cc"],
            "path": "https://w.wallhaven.cc/full/x6/wallhaven-x6mz1o.png",
            "thumbs": {
                "large": "https://th.wallhaven.cc/lg/x6/x6mz1o.jpg",
                "original": "https://th.wallhaven.cc/orig/x6/x6mz1o.jpg",
                "small": "https://th.wallhaven.cc/small/x6/x6mz1o.jpg"
            }
        }
    ],
    "meta": {
        "current_page": 1,
        "last_page": 932,
        "per_page": 24,
        "total": 22360,
        "query": "sky blue",
        "seed": null
    }
}
